Geographic data analysis in R and Python: comparing code and outputs for vector data – geocompx
…
[282 rows x 5 columns]

pol_all = sf::read_sf("/vsizip/data.zip/data/osm/gis_osm_transport_a_free_1.shp")
pol_all

Simple feature collection with 282 features and 4 fields
Geometry type: POLYGON
Dimension:     XY
Bounding box:  xmin: 15.76877 ymin: 51.42587 xmax: 18.51031 ymax: 53.52821
Geodetic CRS:  WGS 84
# A tibble: 282 × 5
   osm_id    code fclass          name                                  geometry
   <chr>    <int> <chr>           <chr>                            <POLYGON [°]>
 1 27923283  5656 apron           <NA>                 ((16.84088 52.42479, 16.…
 2 28396243  5656 apron           <NA>                 ((16.9675 52.32743, 16.9…
 3 28396249  5656 apron           <NA>                 ((16.98029 52.32399, 16.…
 4 28396250  5656 apron           <NA>                 ((16.97407 52.32418, 16.…
 5 30164579  5656 apron           <NA>                 ((16.71011 53.16458, 16.…
 6 32225811  5601 railway_station Czerwonak            ((16.9798 52.46868, 16.9…
 7 36204378  5622 bus_station     <NA>                 ((16.95469 52.40964, 16.…
 8 50701732  5651 airport         Lądowisko Poznań-Be… ((17.19788 52.53491, 17.…
 9 55590985  5622 bus_station     Dworzec PKS-stanowi… ((17.20243 52.80927, 17.…
10 56064358  5651 airport         Port lotniczy Zielo… ((15.76877 52.13175, 15.…
# ℹ 272 more rows
…
[2921 rows x 4 columns]

stops = read_csv("data/gtfs/stops.txt") |>
  select(-stop_code) |>
  st_as_sf(coords = c("stop_lon", "stop_lat"), crs = "EPSG:4326")
stops

Simple feature collection with 2921 features and 3 fields
Geometry type: POINT
Dimension:     XY
Bounding box:  xmin: 16.48119 ymin: 52.15166 xmax: 17.27693 ymax: 52.58723
Geodetic CRS:  WGS 84
# A tibble: 2,921 × 4
   stop_id stop_name              zone_id            geometry
 *   <dbl> <chr>                  <chr>           <POINT [°]>
 1    2186 Żerniki/Skrzyżowanie   B       (17.04263 52.32684)
 2     355 Sucholeska             A       (16.86888 52.46234)
 3    4204 Pawłowicka             A        (16.78629 52.4781)
 4    3885 Kobylniki/Karolewska   B        (16.72401 52.4759)
 5     494 Połabska               A       (16.93085 52.43616)
 6    2040 Tarnowo Pdg/Karolewo I C       (16.68462 52.46915)
 7    3736 Komorniki/Kryształowa  B        (16.78291 52.3478)
 8    3932 Unii Lubelskiej        A        (16.9497 52.37239)
 9    2795 Potasze/Jodłowa        C       (17.02994 52.52445)
10    3861 Miękowo/Stokrotkowa    C       (16.98954 52.49024)
# ℹ 2,911 more rows
…
