R-spatial beyond sf – geocompx
…
1

check = FALSE because the distances are ever so slightly different likely due to floating point rounding or the radius of the earth that is used.

This is markedly faster when using rsgeo. We also do not have to extract the vector and work with it as its own object. Any vector can be included in a data frame, remember?

roxel |> 
  as_tibble() |> 
  mutate(
    geometry = as_rsgeo(geometry),
    length = length_haversine(geometry)
    ) |> 
  select(name, type, length, geometry)
#> # A tibble: 851 × 4
#>    name                  type        length
#>    <chr>                 <fct>        <dbl>
#>  1 Havixbecker Strasse   residential   28.8
#>  2 Pienersallee          secondary    108. 
#>  3 Schulte-Bernd-Strasse residential   54.3
#>  4 <NA>                  path         155. 
#>  5 Welsingheide          residential  209. 
#>  6 <NA>                  footway       63.0
#>  7 <NA>                  footway       42.2
#>  8 <NA>                  path          45.3
#>  9 <NA>                  track        348. 
#> 10 <NA>                  track        145. 
#> # ℹ 841 more rows
#> # ℹ 1 more variable: geometry <r_LINEST>

This same approach can work for other libraries such as geos.

library(geos)

roxel |> 
  as_tibble() |> 
  mutate(
    geometry = as_geos_geometry(geometry),
    length = geos_length(geometry)
    ) |> 
  select(name, type, length, geometry)
#> # A tibble: 851 × 4
#>    name                  type          length geometry                          
#>    <chr>                 <fct>          <dbl> <geos_geom>                       
#>  1 Havixbecker Strasse   residential 0.000331 <LINESTRING (7.53372 51.95556, 7.…
#>  2 Pienersallee          secondary   0.00101  <LINESTRING (7.53244 51.95422, 7.…
#>  3 Schulte-Bernd-Strasse residential 0.000505 <LINESTRING (7.53271 51.95209, 7.…
#>  4 <NA>                  path        0.00201  <LINESTRING [7.5382 51.945...7.54…
#>  5 Welsingheide          residential 0.00188  <LINESTRING (7.53767 51.9475, 7.5…
#>  6 <NA>                  footway     0.000585 <LINESTRING (7.54379 51.94733, 7.…
#>  7 <NA>                  footway     0.000408 <LINESTRING (7.54012 51.94478, 7.…
#>  8 <NA>                  path        0.000628 <LINESTRING (7.53822 51.94546, 7.…
#>  9 <NA>                  track       0.00430  <LINESTRING [7.5401 51.945...7.54…
#> 10 <NA>                  track       0.00162  <LINESTRING [7.5412 51.946...7.54…
#> # ℹ 841 more rows
…
