Spatial machine learning with the tidymodels framework – geocompx
…
# tune:
rf_tuning <- tune_grid(
    workflow,
    resamples = block_folds,
    grid = grid_rf,
    control = keep_pred
)

The results can be extracted with collect_metrics() and then visualized.

rf_tuning |>
    collect_metrics()

# A tibble: 60 × 8
    mtry min_n .metric .estimator  mean     n std_err .config              
   <int> <int> <chr>   <chr>      <dbl> <int>   <dbl> <chr>                
 1     1     5 rmse    standard   1.87      4  0.297  Preprocessor1_Model01
 2     1     5 rsq     standard   0.611     4  0.0806 Preprocessor1_Model01
 3     1     9 rmse    standard   1.91      4  0.257  Preprocessor1_Model02
 4     1     9 rsq     standard   0.594     4  0.0930 Preprocessor1_Model02
 5     2     4 rmse    standard   1.62      4  0.315  Preprocessor1_Model03
 6     2     4 rsq     standard   0.662     4  0.0924 Preprocessor1_Model03
 7     2     2 rmse    standard   1.52      4  0.263  Preprocessor1_Model04
 8     2     2 rsq     standard   0.712     4  0.0795 Preprocessor1_Model04
 9     3     7 rmse    standard   1.48      4  0.292  Preprocessor1_Model05
10     3     7 rsq     standard   0.702     4  0.0747 Preprocessor1_Model05
# ℹ 50 more rows
…
