An overview of the rsi R package for retrieving satellite imagery and calculating spectral indices – geocompx
…
rsi is a recent R package developed by Michael Mahoney and funded by Permian Global Research. It offers features that simplify the process of acquiring spatial data from STAC (SpatioTemporal Asset Catalog) and calculating spectral indices based on such data. A unique feature of this package is its source for the indices. Instead of providing a static list of available formulas, rsi obtains them from Awesome Spectral Indices: a curated repository of over 200 indices covering multiple application domains. The combination of satellite imagery access through STAC and a constantly expanding spectral indices repository significantly simplifies remote sensing processes and creates new opportunities, including the automation of calculating spectral indices over a wide span of time and area.

Set up

rsi is available in development version on GitHub, which can be installed with pak.

pak::pak("Permian-Global-Research/rsi")

To acquire the newest Awesome Spectral Indices dataset, we can call spectral_indices(). Calling it without passing any arguments will result in using cached version of the tibble, which is updated automatically once a day. This tibble contains column with indices formulas, which are using standardized band names.

library(rsi)
asi = spectral_indices(download_indices = TRUE)
asi

# A tibble: 231 × 9
   application_domain bands     contributor   date_of_addition formula long_name
   <chr>              <list>    <chr>         <chr>            <chr>   <chr>    
 1 vegetation         <chr [2]> https://gith… 2021-11-17       (N - 0… Aerosol …
 2 vegetation         <chr [2]> https://gith… 2021-11-17       (N - 0… Aerosol …
 3 water              <chr [6]> https://gith… 2022-09-22       (B + G… Augmente…
 4 vegetation         <chr [2]> https://gith… 2021-09-20       (1 / G… Anthocya…
 5 vegetation         <chr [3]> https://gith… 2022-04-08       N * ((… Anthocya…
 6 vegetation         <chr [4]> https://gith… 2021-05-11       (N - (… Atmosphe…
 7 vegetation         <chr [4]> https://gith… 2021-05-14       sla * … Adjusted…
 8 vegetation         <chr [2]> https://gith… 2022-04-08       (N * (… Advanced…
 9 water              <chr [4]> https://gith… 2021-09-18       4.0 * … Automate…
10 water              <chr [5]> https://gith… 2021-09-18       B + 2.… Automate…
# ℹ 221 more rows
# ℹ 3 more variables: platforms <list>, reference <chr>, short_name <chr>
…
