Geocomputation with R
…
```r
zones
```

```
## Simple feature collection with 300 features and 4 fields
## geometry type:  MULTIPOLYGON
## dimension:      XY
## bbox:           xmin: -2.355518 ymin: 54.45115 xmax: -0.7884347 ymax: 55.07939
## epsg (SRID):    4326
## proj4string:    +proj=longlat +datum=WGS84 +no_defs
## # A tibble: 300 x 5
##    geo_name     all  foot bicycle                                  geometry
##    <chr>      <int> <int>   <int>                        <MULTIPOLYGON []>
##  1 Gateshead  3428   229      58 (((-1.744109 54.98028, -1.728493 54.9749
##  2 Gateshead  4300   230      57 (((-1.7651 54.98013, -1.76156 54.97866, 
##  3 Gateshead  2954   277      70 (((-1.530445 54.95821, -1.530117 54.9577
##  4 Gateshead  3406   321      30 (((-1.707878 54.9583, -1.711479 54.94908
##  5 Gateshead  3226   233      28 (((-1.701471 54.97029, -1.679887 54.9635
##  6 Gateshead  3525   397      95 (((-1.625103 54.94904, -1.619229 54.9454
##  7 Gateshead  3042   693      78 (((-1.609381 54.96109, -1.608685 54.9580
##  8 Gateshead  3419   392      36 (((-1.662861 54.95036, -1.661506 54.9455
##  9 Gateshead  3787   557      89 (((-1.608714 54.93416, -1.609808 54.9341
## 10 Gateshead  2436   328      34 (((-1.589264 54.95537, -1.578682 54.9507
## #  with 290 more rows
```
…
