Spatial data and the tidyverse
…
```r
world_cont = world %>% 
        group_by(continent) %>% 
        summarize(pop_sum = sum(pop, na.rm = TRUE))
```

```
## Simple feature collection with 8 features and 2 fields
## geometry type:  GEOMETRY
## dimension:      XY
## bbox:           xmin: -180 ymin: -90 xmax: 180 ymax: 83.64513
## epsg (SRID):    4326
## proj4string:    +proj=longlat +datum=WGS84 +no_defs
## # A tibble: 8 x 3
##   continent   pop_sum                                                 geom
##   <fct>         <dbl>                                   <MULTIPOLYGON [°]>
## 1 Africa       1.15e9 (((49.54352 -12.46983, 49.80898 -12.89528, 50.05651…
## # ... with 7 more rows
```
…
